INDEX VERSION 1.126+/Users/e125769/Documents/workspace/.metadata/.plugins/org.eclipse.jdt.core
3410762939.index
3916777747.index
1656282002.index
4238209716.index
1271342938.index
1288663406.index
262645610.index
1586978865.index
1692234390.index
156905802.index
762399427.index
1083689720.index
3266567714.index
1917121814.index
3435298984.index
2545238116.index
3302703152.index
3321539481.index
143120735.index
2172906012.index
292086710.index
3712507179.index
1819685514.index
3167017104.index
855630358.index
1833648217.index
2119160767.index
2518103667.index
2081520432.index
629039250.index
4034374388.index
1270315800.index
4031328055.index
1384487945.index
